Program, Version, TimeStamp,Use Coil Direct Solution,Zone Radiant Exchange Algorithm,Override Mode,Number of Timesteps per Hour,Minimum Number of Warmup Days,SuppressAllBeginEnvironmentResets,MaxZoneTempDiff,Electricity ABUPS Total [J],Natural Gas ABUPS Total [J],Additional Fuel ABUPS Total [J],District Cooling ABUPS Total [J],District Heating ABUPS Total [J],Water ABUPS Total [m3],Values Gathered Over [hours],Facility Any Zone Oscillating Temperatures Time [hours],Facility Any Zone Oscillating Temperatures During Occupancy Time [hours],Facility Any Zone Oscillating Temperatures in Deadband Time [hours],Run Time [seconds],Run Time [string],Number of Warnings,Number of Severe,
EnergyPlus, Version 9.3.0-baff08990c, YMD=2020.11.04 21:50,False,ScriptF,NORMAL,6,1,False,0.30,1598029464735.646,1840703619208.883,0.000,0.000,0.000,45.189,8760.00,94.50,30.39,82.85,197.73,00hr 03min 17.73sec,160735,30,
EnergyPlus, Version 9.3.0-baff08990c, YMD=2020.11.04 21:54,False,ScriptF,NORMAL,6,1,False,0.30,1668039842037.675,1889819838774.843,0.000,0.000,0.000,43.611,8760.00,98.03,29.48,87.81,170.85,00hr 02min 50.85sec,155601,30,
EnergyPlus, Version 9.3.0-baff08990c, YMD=2020.11.04 21:57,False,ScriptF,NORMAL,6,1,False,0.30,1670294289044.730,1889931918720.742,0.000,0.000,0.000,43.611,8760.00,98.03,29.48,87.81,177.79,00hr 02min 57.79sec,155601,30,
EnergyPlus, Version 9.3.0-baff08990c, YMD=2020.11.04 22:00,False,ScriptF,NORMAL,6,1,False,0.30,1672268536107.337,1890074042205.898,0.000,0.000,0.000,43.611,8760.00,96.15,29.48,87.81,173.62,00hr 02min 53.62sec,155720,30,
EnergyPlus, Version 9.3.0-baff08990c, YMD=2020.11.04 22:43,False,ScriptF,NORMAL,6,1,False,0.30,1450331591070.803,746409569782.221,0.000,0.000,0.000,33.836,8760.00,348.30,269.92,108.48,178.64,00hr 02min 58.64sec,155050,30,
EnergyPlus, Version 9.3.0-baff08990c, YMD=2020.11.04 22:49,False,ScriptF,NORMAL,6,1,False,0.30,1461419996189.420,887871257204.779,0.000,0.000,0.000,36.533,8760.00,355.89,293.60,136.52,213.18,00hr 03min 33.18sec,157792,30,
EnergyPlus, Version 9.3.0-baff08990c, YMD=2020.11.04 22:56,False,ScriptF,NORMAL,6,1,False,0.30,1450331591070.803,746409569782.221,0.000,0.000,0.000,33.836,8760.00,348.30,269.92,108.48,186.28,00hr 03min  6.28sec,155050,30,
EnergyPlus, Version 9.3.0-baff08990c, YMD=2020.11.04 23:00,False,ScriptF,NORMAL,6,1,False,0.30,1598029464735.646,1840703619208.883,0.000,0.000,0.000,45.189,8760.00,94.50,30.39,82.85,191.48,00hr 03min 11.48sec,160735,30,
EnergyPlus, Version 9.3.0-baff08990c, YMD=2020.11.04 23:03,False,ScriptF,NORMAL,6,1,False,0.30,1668039842037.675,1889819838774.843,0.000,0.000,0.000,43.611,8760.00,98.03,29.48,87.81,168.20,00hr 02min 48.20sec,155601,30,
EnergyPlus, Version 9.3.0-baff08990c, YMD=2020.11.04 23:06,False,ScriptF,NORMAL,6,1,False,0.30,1670294289044.730,1889931918720.742,0.000,0.000,0.000,43.611,8760.00,98.03,29.48,87.81,170.09,00hr 02min 50.09sec,155601,30,
